## Interface: 70300
## Title: RSA [|c51cfff00Demon Hunter|r]
## Notes: RSA Demon Hunter Module. This is needed to announce Demon Hunter Spells.
## Author: Raeli
## Dependencies: RSA
## LoadOnDemand: 1



DemonHunter.lua
