VER 3 0100000000000020 "고치" "INV_MISC_QUESTIONMARK"
#showtooltip
/시전 [@mouseover,help][help][@player] 기의 고치
END
VER 3 0100000000000022 "돌진" "INV_MISC_QUESTIONMARK"
#showtooltip
/시전 [modifier:shift] 손날 찌르기; 비룡차기
END
VER 3 010000000000001F "물결" "INV_MISC_QUESTIONMARK"
#showtooltip
/시전 [@mouseover,help][help][@player] 기의 물결
END
VER 3 0100000000000021 "발산" "INV_MISC_QUESTIONMARK"
#showtooltip
/시전 [@mouseover,help][help][@player] 발산
END
VER 3 0100000000000023 "범욕" "INV_MISC_QUESTIONMARK"
#showtooltip
/시전 [@mouseover,help][help][@player] 범의 욕망
END
VER 3 0100000000000025 "범욕" "INV_MISC_QUESTIONMARK"
#showtooltip
/시전 [@mouseover,help][help][@player] 범의 욕망
END
VER 3 0100000000000024 "생기" "INV_MISC_QUESTIONMARK"
#showtooltip
/시전 [@mouseover,help][help][@player] 생기 충전
END
VER 3 010000000000001C "소생" "INV_MISC_QUESTIONMARK"
#showtooltip
/시전 [@mouseover,help][help][@player] 소생의 안개
END
VER 3 010000000000001D "쇄도" "INV_MISC_QUESTIONMARK"
#showtooltip
/시전 [@mouseover,help][help][@player] 쇄도의 안개
END
VER 3 010000000000000B "위안" "INV_Misc_QuestionMark"
#showtooltip
/시전 [@mouseover,help][help][@player] 위안의 안개
END
VER 3 010000000000001B "포용" "INV_MISC_QUESTIONMARK"
#showtooltip
/시전 [@mouseover,help][help][@player] 포용의 안개
END
