## Interface: 70300
## Title: O Item Level|cff00ccff(OiLvL)|r
## Author: Olzen
## Version: 6.7.34
## Notes: It shows Item Level of raiders in party / raid. Show Item Level and raid progression on tooltips.
## SavedVariables: Oilvl_Settings
## X-Curse-Packaged-Version: v6.7.34 Legion Release
## X-Curse-Project-Name: O Item Level (OiLvL)
## X-Curse-Project-ID: o-item-level
## X-Curse-Repository-ID: wow/o-item-level/mainline
## OptionalDeps: LibStub, LibUIDropDownMenu

localization.lua
libs\LibStub\LibStub.lua
libs\LibUIDropDownMenu\LibUIDropDownMenu.xml
libs\CallbackHandler-1.0\CallbackHandler-1.0.xml
libs\AceAddon-3.0\AceAddon-3.0.xml
libs\AceTimer-3.0\AceTimer-3.0.xml
libs\LibQTip-1.0\lib.xml
libs\LibDataBroker\LibDataBroker-1.1.lua
libs\LibDBIcon-1.0\LibDBIcon-1.0.lua
Oilvlconfig.lua
Oilvl.lua
OilvlPlayer.lua
