VER 3 0100000000000002 "악" "INV_MISC_QUESTIONMARK"
#showtooltip 악마의 영혼: 불안정
/사용 14
/시전 악마의 영혼: 불안정
END
VER 3 0100000000000004 "차단" "INV_MISC_QUESTIONMARK"
#showtooltip
/시전 어둠의 봉인
END
VER 3 0100000000000001 "탈것" "INV_MISC_QUESTIONMARK"
#showtooltip
/시전 [modifier:alt] 공포마
/stopmacro [modifier:alt]
/시전 [flyable] 알라르의 재; 공포마
END
