﻿## Author: Shinisuryu
## Interface: 70300 
## Notes: Enhances shift-click interface at vendors.
## Title: BuyEmAll
## Version: 3.4.4
## SavedVariablesPerCharacter: BEAConfirmToggle
## LoadManagers: AddonLoader
## X-LoadOn-Merchant: true
## X-LoadOn-Slash: /buyemall

Localization.deDE.lua
Localization.enUS.lua
Localization.esES.lua
Localization.frFR.lua
Localization.koKR.lua
Localization.ptBR.lua
Localization.ruRU.lua
Localization.zhCN.lua
Localization.zhTW.lua
BuyEmAll.lua
BuyEmAll.xml