## Interface: 70300
## Title: RSA [|c52FF7D0ADruid|r]
## Notes: RSA Druid Module. This is needed to announce Druid Spells.
## Author: Raeli, Jenneth, Xadurk
## Dependencies: RSA
## LoadOnDemand: 1


## Title-zhTW: RSA [|c51FF7D0A德魯伊|r]
## Notes-zhTW: RSA 德魯伊模組。通報德魯伊的技能。


Druid.lua
