## Interface: 70300
## Title: RSA [|c57FFFFFFPriest|r]
## Notes: RSA Priest Module. This is needed to announce Priest Spells.
## Author: Raeli, Jenneth, Xadurk
## Dependencies: RSA
## LoadOnDemand: 1

## Title-zhTW: RSA [|c57FFFFFF牧師|r]
## Notes-zhTW: RSA 牧師模組。通報牧師的技能。

Priest.lua
