## Interface: 70300
## Title: World Quest Tracker
## Notes: Make more easy to see world quests
## SavedVariables: WQTrackerDB
## SavedVariablesPerCharacter: WQTrackerDBChr


#@no-lib-strip@
libs\libs.xml
#@end-no-lib-strip@

locales\enUS.lua
locales\deDE.lua
locales\esES.lua
locales\esMX.lua
locales\frFR.lua
locales\itIT.lua
locales\koKR.lua
locales\ptBR.lua
locales\ruRU.lua
locales\zhCN.lua
locales\zhTW.lua

WorldQuestTracker.lua
