## Interface: 70300
## Title: RSA [|c53ABD473Hunter|r]
## Notes: RSA Hunter Module. This is needed to announce Hunter Spells.
## Author: Raeli, Jenneth
## Dependencies: RSA
## LoadOnDemand: 1

## Title-zhTW: RSA [|c52ABD473獵人|r]
## Notes-zhTW: RSA 獵人模組。通報獵人的技能。


Hunter.lua
