## Interface: 70300
## Title: RSA [|c56F58CBAPaladin|r]
## Notes: RSA Paladin Module. This is needed to announce Paladin Spells.
## Author: Raeli, Jenneth, Xadurk
## Dependencies: RSA
## LoadOnDemand: 1

## Title-zhTW: RSA [|c54F58CBA聖騎士|r]
## Notes-zhTW: RSA 聖騎士模組。通報聖騎士的技能。


Paladin.lua
