## Interface: 70300
## Title: |cff1784d1AddOnSkins|r
## Version: 3.67
## Author: Azilroka, ChaoticVoid
## SavedVariables: AddOnSkinsDB
## OptionalDeps: ProjectAzilroka, ElvUI, BuyEmAll, DSM, Tukui
 
Load_AddOnSkins.xml
