## Interface: 70300
## Author: Lag, Proteyer, Arith	
## Version: v8.07.05
## Dependencies: AtlasLoot
## LoadOnDemand: 1

#@non-debug@
## Title: AtlasLoot |cFF0099FF[Factions]|r
## Title-deDE: AtlasLoot |cFF0099FF[Fraktionen]|r
## Title-esES: AtlasLoot |cFF0099FF[Facciones]|r
## Title-koKR: AtlasLoot |cFF0099FF[평판]|r
## Title-ruRU: AtlasLoot |cFF0099FF[Фракции]|r
## Title-zhCN: AtlasLoot |cFF0099FF[阵营]|r
## Title-zhTW: AtlasLoot |cFF0099FF[陣營]|r
## Notes: AtlasLoot loot tables from factions
## Notes-deDE: AtlasLoot Beuteverzeichnisse für Fraktionen
## Notes-esES: Tablas de botín de AtlasLoot para facciones
## Notes-koKR: AtlasLoot 평판 전리품 목록
## Notes-ruRU: AtlasLoot таблица добычи для фракции
## Notes-zhCN: AtlasLoot 《阵营》物品信息
## Notes-zhTW: AtlasLoot 陣營物品資料庫
#@end-non-debug@
#@debug@
# ## Title: AtlasLoot |cFF0099FF[Factions]|r
# ## Title-deDE: AtlasLoot |cFF0099FF[Fraktionen]|r
# ## Title-koKR: AtlasLoot |cFF0099FF[평판]|r
# ## Title-ruRU: AtlasLoot |cFF0099FF[Фракции]|r
# ## Title-zhCN: AtlasLoot |cFF0099FF[阵营]|r
# ## Title-zhTW: AtlasLoot |cFF0099FF[陣營]|r
# 
# ## Notes: AtlasLoot loot tables from factions
# ## Notes-deDE: AtlasLoot Beuteverzeichnisse für Fraktionen
# ## Notes-koKR: AtlasLoot 평판 전리품 목록
# ## Notes-zhCN: AtlasLoot 《阵营》物品信息
# ## Notes-zhTW: AtlasLoot 陣營物品資料庫
#@end-debug@

## X-eMail: manager@atlasloot.net
## X-Category: Map
## X-License: GPL v2
## X-Website: http://www.atlasloot.net

## X-AtlasLoot-LootModule: 1

data.lua
