## Interface: 70300
## Title: RSA [|c61C98D57Warrior|r]
## Notes: RSA Warrior Module. This is needed to announce Warrior Spells.
## Author: Raeli, Jenneth, Xadurk
## Dependencies: RSA
## LoadOnDemand: 1

## Title-zhTW: RSA [|c59C98D57戰士|r]
## Notes-zhTW: RSA 戰士模組。通報戰士的技能。


Warrior.lua
