## Interface: 70300
## Title: RSA [|c58FFDD00Rogue|r]
## Notes: RSA Rogue Module. This is needed to announce Rogue Spells.
## Author: Raeli, Jenneth, Xadurk
## Dependencies: RSA
## LoadOnDemand: 1

## Title-zhTW: RSA [|c56FFDD00盜賊|r]
## Notes-zhTW: RSA 盜賊模組。通報盜賊的技能。


Rogue.lua
