## Interface: 70300
## X-Min-Interface: 70300
## Title:|cffffd200Deadly Boss Mods|r |cff69ccf0Core|r
## Title-zhCN:|cffffd200Deadly Boss Mods|r |cff69ccf0核心|r
## Title-ruRU:|cffffd200Deadly Boss Mods|r |cff69ccf0Ядро|r
## Title-zhTW:|cffffd200Deadly Boss Mods|r |cff69ccf0核心|r
## Title-koKR:|cffffd200Deadly Boss Mods|r |cff69ccf0핵심 모듈|r
## Title-esES:|cffffd200Deadly Boss Mods|r |cff69ccf0Proceso|r
## Title-esMX:|cffffd200Deadly Boss Mods|r |cff69ccf0Proceso|r
## Title-frFR:|cffffd200Deadly Boss Mods|r |cff69ccf0Noyau|r
## Notes: Deadly Boss Mods
## Dependencies: DBM-StatusBarTimers, DBM-DefaultSkin
## OptionalDependencies: LibStub, CallbackHandler-1.0, LibSharedMedia-3.0, LibChatAnims
## SavedVariables: DBM_AllSavedOptions
## SavedVariablesPerCharacter: DBM_UsedProfile, DBM_UseDualProfile, DBM_CharSavedRevision
## LoadOnDemand: 0
## DefaultState: enabled
## Author: Tandanu and Nitram
## X-Website: http://www.deadlybossmods.com
## Version: 7.3.13

#@no-lib-strip@
Libs\LibStub\LibStub.lua
Libs\CallbackHandler-1.0\CallbackHandler-1.0.xml
Libs\LibChatAnims\LibChatAnims.xml
Libs\LibSharedMedia-3.0\lib.xml
Libs\LibLatency\LibLatency.xml
Libs\LibDurability\LibDurability.xml
#@end-no-lib-strip@

localization.en.lua
localization.de.lua
localization.cn.lua
localization.ru.lua
localization.fr.lua
localization.it.lua
localization.tw.lua
localization.kr.lua
localization.es.lua
localization.br.lua
DBM-Core.lua
DBM-Arrow.lua
DBM-Flash.lua
DBM-RangeCheck.lua
DBM-BossHealth.lua
DBM-BossHealth.xml
DBM-InfoFrame.lua
DBM-HudMap.lua
DBM-Nameplate.lua
