## Interface: 70300
## Title: RSA [|c544AAAFFMage|r]
## Notes: RSA Mage Module. This is needed to announce Mage Spells.
## Author: Raeli, Jenneth
## Dependencies: RSA
## LoadOnDemand: 1

## Title-zhTW: RSA [|c534AAAFF法師|r]
## Notes-zhTW: RSA 法師模組。通報法師的技能。


Mage.lua
